NAME,Total,White Alone,Black or African American Alone,American Indian and Alaska Native alone,Asian alone,Native Hawaiian and Other Pacific Islander alone,Some Other Race alone,Two or More Races
Adams,101407,94979,1561,213,746,20,2544,1344
Allegheny,1223348,997295,161861,1702,34090,278,5523,22599
Armstrong,68941,67565,553,45,150,9,91,528
Bedford,49762,48782,238,75,101,14,151,401
Blair,127089,122238,2129,143,706,29,297,1547
Bradford,62622,61035,311,154,339,7,130,646
Butler,183862,177605,2021,194,1838,50,462,1692
Cambria,143679,135206,5222,147,729,29,588,1758
Cameron,5085,5000,13,13,14,0,3,42
Carbon,65249,62519,976,123,311,27,504,789
Centre,153990,137625,4638,191,7986,48,1142,2360
Clarion,39988,38873,484,58,191,8,59,315
Clearfield,81642,77912,1862,86,389,16,652,725
Clinton,39238,37860,625,34,200,15,171,333
Columbia,67295,64227,1246,87,563,15,450,707
Crawford,88765,85448,1547,162,403,19,170,1016
Cumberland,235406,213934,7527,363,7072,65,2203,4242
Delaware,558979,405233,110260,874,26277,145,5211,10979
Elk,31946,31469,89,34,96,6,42,210
Erie,280566,247569,20155,566,3077,90,3231,5878
Fayette,136606,127418,6325,184,405,24,411,1839
Forest,7716,5937,1389,13,12,1,318,46
Franklin,149618,137674,4700,302,1310,29,2849,2754
Fulton,14845,14450,151,28,19,1,42,154
Huntingdon,45913,42470,2392,41,184,2,400,424
Indiana,88880,84360,2434,124,774,10,341,837
Jefferson,45200,44446,157,86,92,3,55,361
Juniata,24636,23845,151,31,85,3,279,242
Lancaster,519445,460171,19035,1195,9860,164,18819,10201
Lebanon,133568,121566,2885,250,1533,36,5165,2133
Lehigh,349497,276286,21440,1279,10247,126,30064,10055
Luzerne,320918,290943,10767,558,3135,57,10555,4903
Lycoming,116111,107573,5203,217,671,25,421,2001
McKean,43450,41661,1046,100,193,3,60,387
Mercer,116638,106890,6726,156,728,16,365,1757
Mifflin,46682,45531,300,52,168,7,143,481
Monroe,169842,131162,22348,572,3484,79,7295,4902
Montour,18267,17408,256,16,326,2,85,174
Northumberland,94528,90156,1921,146,332,13,972,988
Philadelphia,1526006,626221,661839,6996,96405,744,90731,43070
Pike,57369,50856,3322,176,597,16,1193,1209
Schuylkill,148289,140013,3967,212,710,26,1878,1483
Snyder,39702,38476,428,53,214,6,198,327
Somerset,77742,74603,1863,86,239,17,468,466
Tioga,41981,40852,333,91,183,4,80,438
Union,44947,39414,3324,159,522,24,792,712
Venango,54984,53390,571,85,197,11,108,622
Warren,41815,41031,149,80,157,12,53,333
Washington,207820,195657,6757,251,1327,31,630,3167
Wayne,52822,49759,1644,101,255,4,460,599
Beaver,170539,155561,10676,181,724,40,403,2954
Chester,498886,426707,30623,862,19296,161,12207,9030
Dauphin,268100,194910,48386,578,8580,78,7284,8284
Montgomery,799874,649021,69351,1174,51565,296,12947,15520
York,434972,385135,24344,942,5407,123,10326,8695
Berks,411442,342148,20143,1285,5385,128,32101,10252
Bucks,625249,557647,22376,1232,24008,174,9430,10382
Greene,38686,36584,1282,67,113,7,258,375
Lackawanna,214437,197296,5423,330,3644,55,4393,3296
Lawrence,91108,85484,3501,74,370,10,196,1473
Northampton,297735,256895,14986,609,7203,98,11289,6655
Perry,45969,44779,296,72,164,19,173,466
Potter,17457,17128,67,45,45,1,30,141
Sullivan,6428,6163,168,26,20,0,8,43
Susquehanna,43356,42510,156,57,123,12,139,359
Westmoreland,365169,348182,8562,351,2704,62,833,4475
Wyoming,28276,27545,208,54,95,3,112,259
