,BLOCKID,COUNTYFP,PRECINCT,DISTRICT
0,190019601001000,1,1006,5
8,190019601001008,1,1007,5
15,190019601001015,1,1005,5
189,190019601001189,1,1008,5
190,190019601001190,1,1009,5
290,190019601001290,1,1010,5
374,190019601002003,1,1003,5
377,190019601002006,1,1004,5
392,190019601002021,1,1002,5
502,190019601002131,1,1011,5
617,190019601002246,1,1012,5
630,190019601003002,1,1001,5
764,190019602001017,1,1018,5
784,190019602001037,1,1015,5
810,190019602001063,1,1016,5
849,190019602001102,1,1020,5
851,190019602001104,1,1019,5
958,190019602002007,1,1014,5
1018,190019602002067,1,1022,5
1027,190019602002076,1,1013,5
1082,190019602002131,1,1021,5
1280,190019603001001,1,1017,5
1680,190039501001000,3,3003,5
1693,190039501001013,3,3002,5
1701,190039501001021,3,3001,5
1756,190039501001076,3,3009,5
1823,190039501001143,3,3006,5
1827,190039501001147,3,3007,5
1854,190039501001174,3,3010,5
2013,190039501001333,3,3013,5
2079,190039501002000,3,3004,5
2149,190039501002070,3,3005,5
2220,190039501002141,3,3014,5
2360,190039501002281,3,3015,5
2365,190039502001001,3,3008,5
2510,190039502002024,3,3012,5
2545,190039502002059,3,3011,5
2781,190059601001000,5,5003,4
2804,190059601001023,5,5004,4
2826,190059601001045,5,5002,4
2859,190059601001078,5,5005,4
2922,190059601002043,5,5010,4
2943,190059601003011,5,5011,4
2977,190059601003045,5,5009,4
3057,190059601003125,5,5008,4
3189,190059602001112,5,5001,4
3244,190059602002045,5,5006,4
3327,190059602002128,5,5007,4
3389,190059602003036,5,5014,4
3413,190059602003060,5,5015,4
3534,190059603003039,5,5013,4
3587,190059604001005,5,5012,4
3623,190059604001041,5,5018,4
3626,190059604001044,5,5019,4
3845,190059604002119,5,5020,4
4048,190059605001068,5,5016,4
4118,190059605002035,5,5017,4
4212,190079501001000,7,7005,2
4219,190079501001007,7,7003,2
4224,190079501001012,7,7004,2
4327,190079501002028,7,7007,2
4348,190079501002049,7,7006,2
4460,190079501002161,7,7016,2
4478,190079501002179,7,7015,2
4484,190079501002185,7,7014,2
4580,190079501003015,7,7018,2
4652,190079501003087,7,7017,2
4670,190079502001003,7,7002,2
4675,190079502001008,7,7001,2
4766,190079502001099,7,7008,2
4912,190079502001245,7,7009,2
4945,190079502001278,7,7011,2
5055,190079502002002,7,7013,2
5422,190079505001021,7,7019,2
5467,190079505001066,7,7020,2
5624,190079505003020,7,7010,2
5660,190079505003056,7,7012,2
5680,190079505003076,7,7021,2
5756,190090701001000,9,9004,5
5765,190090701001009,9,9003,5
5845,190090701001089,9,9005,5
5861,190090701001105,9,9007,5
5936,190090701002000,9,9011,5
5947,190090701002011,9,9010,5
5985,190090701002049,9,9009,5
6172,190090701003002,9,9001,5
6185,190090701003015,9,9002,5
6256,190090701003086,9,9008,5
6620,190090703001003,9,9013,5
6692,190090703002007,9,9014,5
6737,190090703002052,9,9006,5
6877,190090703003000,9,9012,5
7021,190119601001000,11,11004,3
7163,190119601002010,11,11003,3
7279,190119601002126,11,11006,3
7368,190119602001000,11,11002,3
7397,190119602001029,11,11001,3
7515,190119602001147,11,11008,3
7543,190119602001175,11,11007,3
7698,190119602002065,11,11010,3
7727,190119602002094,11,11009,3
7898,190119602003000,11,11015,3
8034,190119602003136,11,11014,3
8037,190119602003139,11,11019,3
8490,190119604001000,11,11005,3
8554,190119604001064,11,11012,3
8654,190119604002008,11,11011,3
8772,190119605001000,11,11013,3
8889,190119605001117,11,11022,3
9109,190119605003084,11,11023,3
9175,190119606001000,11,11021,3
9351,190119606002006,11,11017,3
9389,190119606002044,11,11020,3
9469,190119606003000,11,11016,3
9606,190119607001005,11,11018,3
9836,190130001001000,13,13053,1
9837,190130001001001,13,13058,1
9852,190130001001016,13,13054,1
9899,190130001002015,13,13059,1
9933,190130001002049,13,13056,1
9979,190130002001000,13,13063,1
9989,190130002001010,13,13065,1
10012,190130002001033,13,13067,1
10045,190130002002029,13,13064,1
10065,190130003001014,13,13055,1
10067,190130003001016,13,13041,1
10246,190130005002016,13,13051,1
10339,190130007001051,13,13060,1
10377,190130008002000,13,13062,1
10443,190130008002066,13,13048,1
10458,190130008003000,13,13009,1
10515,190130008003057,13,13037,1
10518,190130008003060,13,13038,1
10702,190130010003000,13,13047,1
10767,190130011001025,13,13066,1
10859,190130013011000,13,13046,1
10867,190130013011008,13,13045,1
10903,190130013021000,13,13068,1
10927,190130013022001,13,13050,1
10959,190130014001000,13,13042,1
11093,190130015011003,13,13043,1
11124,190130015012005,13,13044,1
11149,190130015021000,13,13040,1
11263,190130015031027,13,13039,1
11358,190130016001000,13,13004,1
11392,190130016001034,13,13022,1
11491,190130016002000,13,13052,1
11518,190130017011000,13,13057,1
11666,190130018001000,13,13061,1
12006,190130022001000,13,13023,1
12080,190130022003000,13,13024,1
12107,190130022003027,13,13025,1
12185,190130023011002,13,13031,1
12239,190130023012015,13,13026,1
12274,190130023031000,13,13032,1
12292,190130023031018,13,13033,1
12306,190130023032000,13,13030,1
12392,190130024002000,13,13034,1
12474,190130025001000,13,13036,1
12475,190130025001001,13,13035,1
12577,190130026011016,13,13027,1
12638,190130026031000,13,13001,1
12683,190130026031045,13,13002,1
12718,190130026031080,13,13021,1
12749,190130026032007,13,13028,1
12789,190130026033011,13,13029,1
12875,190130026041002,13,13003,1
13111,190130027001000,13,13005,1
13244,190130027002057,13,13069,1
13329,190130027004000,13,13010,1
13432,190130028001000,13,13006,1
13524,190130028001092,13,13008,1
13592,190130028002009,13,13007,1
13643,190130028003000,13,13012,1
13644,190130028003001,13,13011,1
13709,190130028003066,13,13013,1
13777,190130029011000,13,13015,1
13805,190130029011028,13,13049,1
13922,190130029021077,13,13014,1
14147,190130030011008,13,13016,1
14258,190130030012086,13,13020,1
14264,190130030012092,13,13019,1
14386,190130030021115,13,13018,1
14445,190130030022045,13,13017,1
14564,190150201001000,15,15005,4
14566,190150201001002,15,15006,4
14590,190150201001026,15,15003,4
14625,190150201001061,15,15015,4
14685,190150201001121,15,15016,4
14700,190150201002000,15,15004,4
14870,190150201002170,15,15008,4
15856,190150205001000,15,15020,4
15857,190150205001001,15,15021,4
15978,190150205002018,15,15014,4
16078,190150205002118,15,15017,4
16133,190150205003000,15,15018,4
16296,190150205004079,15,15019,4
16308,190150206001000,15,15012,4
16341,190150206001033,15,15011,4
16391,190150206001083,15,15025,4
16395,190150206001087,15,15024,4
16421,190150206001113,15,15022,4
16446,190150206001138,15,15023,4
16651,190150207001000,15,15002,4
16659,190150207001008,15,15001,4
16733,190150207001082,15,15009,4
16788,190150207001137,15,15007,4
16947,190150207002001,15,15013,4
17176,190150207004038,15,15010,4
17265,190170040001000,17,17013,1
17268,190170040001003,17,17012,1
17335,190170041001000,17,17011,1
17346,190170041001011,17,17010,1
17611,190170043001000,17,17018,1
17649,190170043002000,17,17019,1
17665,190170043002016,17,17016,1
17775,190170044001000,17,17009,1
17783,190170044001008,17,17008,1
17926,190170044003038,17,17001,1
18111,190170045002000,17,17005,1
18112,190170045002001,17,17004,1
18117,190170045002006,17,17003,1
18125,190170045002014,17,17002,1
18354,190170045003041,17,17007,1
18431,190170046001006,17,17017,1
18457,190170046001032,17,17014,1
18660,190170046003089,17,17015,1
18729,190170047001000,17,17006,1
18841,190199501001000,19,19006,1
18933,190199501001092,19,19008,1
18984,190199501001143,19,19009,1
19004,190199501002004,19,19004,1
19006,190199501002006,19,19007,1
19012,190199501002012,19,19005,1
19092,190199501002092,19,19003,1
19164,190199501003046,19,19010,1
19204,190199501003086,19,19017,1
19564,190199502002081,19,19015,1
19567,190199502003001,19,19001,1
19573,190199502003007,19,19002,1
19708,190199502003142,19,19011,1
19791,190199503001051,19,19012,1
20028,190199504001092,19,19014,1
20396,190199506001000,19,19016,1
20482,190199506001086,19,19018,1
20575,190199506001179,19,19020,1
20677,190199506002077,19,19019,1
20875,190199506003038,19,19021,1
20961,190199506003124,19,19022,1
20966,190199506004002,19,19013,1
21231,190219601001000,21,21006,5
21240,190219601001009,21,21005,5
21305,190219601001074,21,21008,5
21329,190219601001098,21,21007,5
21499,190219602001000,21,21002,5
21510,190219602001011,21,21001,5
21574,190219602001075,21,21003,5
21585,190219602001086,21,21009,5
21618,190219602001119,21,21010,5
21753,190219602002009,21,21004,5
21853,190219603001018,21,21013,5
21860,190219603001025,21,21014,5
21943,190219603001108,21,21015,5
21977,190219603001142,21,21016,5
22159,190219604001000,21,21012,5
22163,190219604001004,21,21019,5
22250,190219604002039,21,21017,5
22262,190219604002051,21,21018,5
22499,190219606001000,21,21011,5
22506,190219606001007,21,21020,5
22846,190230701001000,23,23006,1
22849,190230701001003,23,23007,1
22850,190230701001004,23,23008,1
23045,190230701001199,23,23015,1
23078,190230701001232,23,23014,1
23124,190230701002000,23,23005,1
23131,190230701002007,23,23004,1
23138,190230701002014,23,23002,1
23139,190230701002015,23,23003,1
23308,190230701002184,23,23016,1
23372,190230702001000,23,23010,1
23378,190230702001006,23,23013,1
23379,190230702001007,23,23011,1
23446,190230702001074,23,23021,1
23525,190230702002000,23,23001,1
23630,190230702002105,23,23012,1
23810,190230703001072,23,23009,1
24082,190230704001000,23,23018,1
24094,190230704001012,23,23019,1
24134,190230704001052,23,23020,1
24487,190230705002043,23,23017,1
24579,190259501001000,25,25005,4
24588,190259501001009,25,25003,4
24671,190259501001092,25,25009,4
24738,190259501002001,25,25006,4
24846,190259502001000,25,25004,4
24854,190259502001008,25,25002,4
24964,190259502002007,25,25001,4
25103,190259502002146,25,25008,4
25144,190259502002187,25,25011,4
25183,190259502002226,25,25012,4
25277,190259502003007,25,25010,4
25456,190259503001000,25,25016,4
25469,190259503001013,25,25018,4
25478,190259503001022,25,25019,4
25549,190259503001093,25,25020,4
25596,190259503002000,25,25007,4
25715,190259503002119,25,25017,4
25746,190259503002150,25,25015,4
26038,190259504001000,25,25014,4
26047,190259504001009,25,25013,4
26148,190259504001110,25,25021,4
26175,190259504001137,25,25023,4
26282,190259504001244,25,25022,4
26464,190279601001000,27,27005,5
26474,190279601001010,27,27004,5
26483,190279601001019,27,27002,5
26652,190279601001188,27,27001,5
26665,190279601001201,27,27011,5
26726,190279601001262,27,27010,5
26763,190279601001299,27,27009,5
26775,190279601001311,27,27008,5
26817,190279601002000,27,27006,5
26937,190279601003064,27,27016,5
26995,190279601003122,27,27020,5
26996,190279601003123,27,27018,5
27080,190279601004052,27,27017,5
27084,190279601004056,27,27007,5
27177,190279602001020,27,27003,5
27258,190279602001101,27,27012,5
27363,190279602002073,27,27013,5
27392,190279602002102,27,27014,5
27415,190279602003021,27,27015,5
28056,190279605001124,27,27019,5
28191,190279606001000,27,27022,5
28239,190279606002001,27,27021,5
28421,190291901001000,29,29003,5
28429,190291901001008,29,29002,5
28452,190291901001031,29,29001,5
28530,190291901001109,29,29008,5
28668,190291901001247,29,29007,5
28669,190291901001248,29,29006,5
28722,190291901001301,29,29009,5
28753,190291901002000,29,29004,5
28815,190291901002062,29,29005,5
29192,190291902001043,29,29010,5
29306,190291902001157,29,29018,5
29312,190291902001163,29,29011,5
29331,190291902002009,29,29017,5
29636,190291903001026,29,29012,5
29746,190291903001136,29,29016,5
29827,190291903002000,29,29013,5
29872,190291903002045,29,29014,5
29882,190291903002055,29,29015,5
30545,190314501001000,31,31005,2
30556,190314501001011,31,31004,2
30651,190314501001106,31,31006,2
30655,190314501001110,31,31007,2
30661,190314501001116,31,31008,2
30669,190314501001124,31,31009,2
30939,190314502001000,31,31002,2
31061,190314502002003,31,31003,2
31062,190314502002004,31,31001,2
31250,190314502004008,31,31010,2
31276,190314502004034,31,31011,2
31323,190314502004081,31,31013,2
31385,190314502004143,31,31012,2
31707,190314504001000,31,31014,2
31812,190314504001105,31,31015,2
31890,190314504002055,31,31016,2
32093,190314505001079,31,31018,2
32134,190314505001120,31,31017,2
32179,190314505002023,31,31020,2
32256,190314505003000,31,31021,2
32542,190314505006104,31,31019,2
32581,190339501021000,33,33003,4
32582,190339501021001,33,33025,4
32593,190339501021012,33,33024,4
32596,190339501022002,33,33029,4
32623,190339501023007,33,33027,4
32702,190339502001010,33,33002,4
32704,190339502001012,33,33008,4
32707,190339502001015,33,33028,4
32822,190339502003025,33,33035,4
32869,190339502004042,33,33007,4
32979,190339503001023,33,33030,4
32989,190339503001033,33,33033,4
33067,190339503003023,33,33034,4
33204,190339504022000,33,33031,4
33446,190339506002000,33,33004,4
33562,190339506003003,33,33005,4
33582,190339506003023,33,33006,4
33608,190339506003049,33,33014,4
33630,190339506003071,33,33015,4
33708,190339507001006,33,33009,4
33734,190339507001032,33,33010,4
33970,190339508001006,33,33011,4
34031,190339508002007,33,33001,4
34360,190339509001081,33,33013,4
34361,190339509001082,33,33012,4
34574,190339510001007,33,33019,4
34575,190339510001008,33,33018,4
34648,190339510002011,33,33016,4
34706,190339510002069,33,33020,4
34845,190339510002208,33,33017,4
34907,190339510003008,33,33021,4
34940,190339510003041,33,33022,4
35014,190339510003115,33,33023,4
35051,190339514001001,33,33032,4
35109,190339514002001,33,33026,4
35265,190350801001000,35,35014,5
35295,190350801002000,35,35003,5
35297,190350801002002,35,35007,5
35424,190350801003051,35,35013,5
35649,190350802001000,35,35004,5
35730,190350802001081,35,35006,5
35840,190350802002005,35,35002,5
35852,190350802002017,35,35001,5
35936,190350802002101,35,35008,5
36020,190350802002185,35,35009,5
36063,190350802003006,35,35010,5
36357,190350803002042,35,35012,5
36364,190350803002049,35,35011,5
36486,190350803002171,35,35019,5
36492,190350803002177,35,35018,5
36689,190350804001012,35,35017,5
36722,190350804001045,35,35016,5
36839,190350804002008,35,35015,5
37194,190370701001000,37,37004,4
37195,190370701001001,37,37005,4
37205,190370701001011,37,37003,4
37332,190370701001138,37,37006,4
37376,190370701002000,37,37001,4
37454,190370701002078,37,37012,4
37564,190370701003000,37,37002,4
37704,190370701004000,37,37008,4
37814,190370702001007,37,37013,4
37827,190370702001020,37,37009,4
37965,190370702002042,37,37011,4
38145,190370703001019,37,37007,4
38292,190370703001166,37,37010,4
38358,190370703002000,37,37015,4
38367,190370703002009,37,37014,4
38509,190370703002151,37,37016,4
38904,190399601001000,39,39006,5
38905,190399601001001,39,39007,5
39268,190399602001000,39,39005,5
39272,190399602001004,39,39004,5
39370,190399602001102,39,39012,5
39372,190399602001104,39,39013,5
39467,190399602001199,39,39011,5
39535,190399602002029,39,39003,5
39670,190399603001000,39,39001,5
39718,190399603001048,39,39009,5
39866,190399603002002,39,39002,5
39934,190399603002070,39,39008,5
40102,190399603002238,39,39010,5
40218,190410801001000,41,41005,5
40224,190410801001006,41,41006,5
40280,190410801001062,41,41015,5
40312,190410801001094,41,41017,5
40318,190410801001100,41,41018,5
40381,190410801002000,41,41007,5
40405,190410801002024,41,41014,5
40417,190410801002036,41,41008,5
40425,190410801002044,41,41013,5
40498,190410801002117,41,41016,5
40536,190410801002155,41,41019,5
40656,190410801003000,41,41004,5
40666,190410801003010,41,41003,5
40861,190410802001003,41,41009,5
41120,190410803002004,41,41002,5
41330,190410804001008,41,41012,5
41357,190410804001035,41,41020,5
41523,190410804002026,41,41001,5
41595,190410804002098,41,41010,5
41907,190410804004002,41,41011,5
42008,190430701001000,43,43005,1
42042,190430701001034,43,43006,1
42079,190430701001071,43,43007,1
42109,190430701001101,43,43014,1
42126,190430701001118,43,43015,1
42169,190430701002000,43,43004,1
42192,190430701002023,43,43003,1
42202,190430701002033,43,43009,1
42206,190430701002037,43,43008,1
42348,190430702001006,43,43010,1
42358,190430702001016,43,43001,1
42421,190430702001079,43,43012,1
42432,190430702001090,43,43011,1
42433,190430702001091,43,43013,1
42443,190430702002008,43,43002,1
42696,190430703001067,43,43016,1
42824,190430703002123,43,43018,1
42829,190430703002128,43,43017,1
43075,190430704003027,43,43025,1
43193,190430705001020,43,43023,1
43205,190430705001032,43,43024,1
43231,190430705001058,43,43022,1
43318,190430705001145,43,43020,1
43324,190430705002000,43,43026,1
43570,190430706001135,43,43019,1
43658,190430706002087,43,43021,1
43722,190450001001000,45,45026,1
43739,190450001001017,45,45027,1
43747,190450001001025,45,45024,1
43788,190450001003013,45,45022,1
43824,190450002001012,45,45023,1
43933,190450003002009,45,45025,1
44066,190450004003026,45,45009,1
44122,190450004003082,45,45021,1
44211,190450005004019,45,45008,1
44265,190450006002000,45,45029,1
44354,190450007001000,45,45028,1
44459,190450008001000,45,45019,1
44483,190450008001024,45,45020,1
44789,190450009001000,45,45017,1
44791,190450009001002,45,45018,1
44962,190450009006002,45,45010,1
45069,190450010001000,45,45011,1
45077,190450010001008,45,45016,1
45152,190450010001083,45,45015,1
45207,190450010002000,45,45012,1
45251,190450010002044,45,45014,1
45292,190450010003008,45,45013,1
45456,190450011001000,45,45003,1
45464,190450011001008,45,45004,1
45466,190450011001010,45,45002,1
45671,190450011002072,45,45001,1
45833,190450012002000,45,45007,1
46045,190450012004000,45,45006,1
46105,190450012005001,45,45005,1
46191,190470701001000,47,47008,5
46201,190470701001010,47,47007,5
46306,190470701001115,47,47012,5
46326,190470701001135,47,47013,5
46376,190470701001185,47,47009,5
46421,190470701001230,47,47014,5
46446,190470701001255,47,47020,5
46474,190470701002006,47,47010,5
46549,190470701002081,47,47011,5
46625,190470701002157,47,47022,5
46666,190470702001000,47,47004,5
46667,190470702001001,47,47003,5
46668,190470702001002,47,47005,5
46778,190470702002006,47,47006,5
46893,190470702002121,47,47015,5
46953,190470702003005,47,47001,5
47040,190470702003092,47,47002,5
47067,190470702003119,47,47016,5
47270,190470703002002,47,47018,5
47272,190470703002004,47,47019,5
47296,190470703002028,47,47017,5
47402,190470703002134,47,47026,5
47406,190470703002138,47,47027,5
47448,190470703002180,47,47025,5
47503,190470703002235,47,47028,5
47694,190470703003088,47,47029,5
47714,190470704001000,47,47021,5
48278,190470705001098,47,47024,5
48398,190470705001218,47,47023,5
48631,190490501001000,49,49005,4
48680,190490501002000,49,49004,4
48746,190490501003030,49,49003,4
48775,190490501003059,49,49006,4
48789,190490501003073,49,49007,4
48879,190490501004048,49,49018,4
48900,190490501004069,49,49016,4
48908,190490501004077,49,49019,4
48941,190490502001000,49,49008,4
48956,190490502001015,49,49009,4
49002,190490502001061,49,49015,4
49008,190490502001067,49,49014,4
49066,190490502002010,49,49002,4
49548,190490505001004,49,49001,4
49641,190490505001097,49,49010,4
49755,190490505002002,49,49013,4
49765,190490505002012,49,49011,4
49776,190490505002023,49,49012,4
49878,190490505002125,49,49028,4
49890,190490506001006,49,49026,4
49928,190490506001044,49,49029,4
50102,190490507001006,49,49021,4
50235,190490507003039,49,49017,4
50242,190490508031000,49,49020,4
50244,190490508031002,49,49022,4
50532,190490508091040,49,49030,4
50547,190490508092000,49,49023,4
50596,190490508111010,49,49024,4
50714,190490508112109,49,49025,4
50970,190490509021001,49,49027,4
51259,190510801001000,51,51004,2
51264,190510801001005,51,51003,2
51343,190510801001084,51,51006,2
51373,190510801001114,51,51007,2
51468,190510801002065,51,51005,2
51539,190510801003015,51,51015,2
51604,190510801003080,51,51014,2
51618,190510801003094,51,51013,2
51674,190510801003150,51,51016,2
51784,190510801004001,51,51008,2
51873,190510802001000,51,51001,2
51944,190510802001071,51,51010,2
51948,190510802001075,51,51009,2
52000,190510802001127,51,51011,2
52121,190510802001248,51,51012,2
52249,190510802002000,51,51002,2
52619,190539601001000,53,53006,5
52699,190539601001080,53,53007,5
52710,190539601001091,53,53008,5
52747,190539601001128,53,53015,5
52782,190539601001163,53,53014,5
52812,190539601001193,53,53016,5
52846,190539601001227,53,53017,5
52863,190539601002001,53,53010,5
52873,190539601002011,53,53013,5
52964,190539601002102,53,53018,5
52967,190539601002105,53,53019,5
53053,190539601002191,53,53020,5
53110,190539601003000,53,53004,5
53113,190539601003003,53,53005,5
53151,190539601003041,53,53002,5
53152,190539601003042,53,53003,5
53275,190539602001011,53,53001,5
53380,190539602001116,53,53011,5
53534,190539602001270,53,53012,5
53677,190539602002004,53,53021,5
53827,190539603001005,53,53009,5
54091,190559501001000,55,55005,1
54096,190559501001005,55,55006,1
54149,190559501001058,55,55007,1
54170,190559501002000,55,55004,1
54175,190559501002005,55,55002,1
54239,190559501002069,55,55008,1
54320,190559501003043,55,55017,1
54343,190559501003066,55,55016,1
54370,190559501004009,55,55015,1
54471,190559501004110,55,55014,1
54499,190559502001006,55,55003,1
54556,190559502001063,55,55009,1
54570,190559502002001,55,55001,1
54673,190559502002104,55,55010,1
54739,190559502002170,55,55013,1
54782,190559502002213,55,55011,1
54846,190559502003050,55,55012,1
55141,190559504001076,55,55018,1
55195,190559504002005,55,55019,1
55421,190559504003155,55,55021,1
55446,190559504004010,55,55020,1
55470,190559504004034,55,55022,1
55787,190570002001000,57,57011,2
55788,190570002001001,57,57016,2
55814,190570002001027,57,57015,2
55953,190570002003090,57,57018,2
55955,190570002003092,57,57019,2
55956,190570003001000,57,57026,2
55960,190570003001004,57,57025,2
55990,190570003001034,57,57014,2
56025,190570003003015,57,57017,2
56031,190570003004000,57,57024,2
56138,190570004003005,57,57022,2
56270,190570005003007,57,57021,2
56279,190570005003016,57,57023,2
56390,190570006002008,57,57020,2
56509,190570007002014,57,57013,2
56522,190570007002027,57,57012,2
56555,190570008001000,57,57010,2
56852,190570010001000,57,57003,2
56867,190570010001015,57,57002,2
56930,190570010001078,57,57004,2
56933,190570010001081,57,57005,2
57009,190570010001157,57,57006,2
57236,190570011001006,57,57001,2
57328,190570011001098,57,57007,2
57428,190570011002070,57,57008,2
57523,190570011003032,57,57009,2
58235,190594502001000,59,59003,5
58244,190594502001009,59,59001,5
58283,190594502001048,59,59010,5
58312,190594502001077,59,59017,5
58353,190594502001118,59,59015,5
58386,190594502001151,59,59018,5
58408,190594502001173,59,59019,5
58439,190594502001204,59,59016,5
58524,190594502002001,59,59002,5
58613,190594505001000,59,59009,5
58614,190594505001001,59,59011,5
58763,190594505003000,59,59005,5
58796,190594505003033,59,59004,5
58846,190594508001000,59,59021,5
58886,190594508001040,59,59020,5
58955,190594508003000,59,59012,5
59081,190594508003126,59,59014,5
59091,190594510001000,59,59006,5
59138,190594510001047,59,59008,5
59279,190594510001188,59,59007,5
59456,190594511001030,59,59013,5
59745,190610001001000,61,61041,1
59760,190610001001015,61,61042,1
59833,190610001001088,61,61046,1
59900,190610001002007,61,61044,1
59936,190610001003001,61,61043,1
60028,190610003002011,61,61040,1
60037,190610004001000,61,61039,1
60089,190610004003000,61,61038,1
60094,190610005001000,61,61037,1
60185,190610006001006,61,61034,1
60195,190610006002003,61,61035,1
60239,190610007013001,61,61045,1
60245,190610007013007,61,61036,1
60329,190610008011003,61,61019,1
60362,190610008011036,61,61026,1
60363,190610008012000,61,61027,1
60459,190610008022012,61,61030,1
60468,190610008023004,61,61029,1
60494,190610009001012,61,61028,1
60577,190610011011000,61,61032,1
60607,190610011013000,61,61033,1
60651,190610011025000,61,61007,1
60694,190610011026000,61,61047,1
60696,190610011026002,61,61009,1
60698,190610011026004,61,61031,1
60907,190610101011011,61,61018,1
60952,190610101031000,61,61006,1
61245,190610102011000,61,61008,1
61262,190610102011017,61,61016,1
61265,190610102011020,61,61017,1
61367,190610102012000,61,61003,1
61449,190610102021000,61,61002,1
61450,190610102021001,61,61010,1
61488,190610102021039,61,61014,1
61517,190610102021068,61,61012,1
61527,190610102022007,61,61015,1
61721,190610103001030,61,61023,1
61740,190610103001049,61,61022,1
61807,190610103001116,61,61025,1
61816,190610103002000,61,61020,1
61880,190610103002064,61,61021,1
61916,190610103003003,61,61024,1
61994,190610104001003,61,61001,1
62046,190610104001055,61,61011,1
62186,190610104003049,61,61048,1
62311,190610105001004,61,61013,1
62529,190610106001028,61,61005,1
62628,190610106003035,61,61004,1
62663,190630701001000,63,63004,4
62705,190630701001042,63,63005,4
62720,190630701001057,63,63003,4
62725,190630701001062,63,63006,4
62787,190630701001124,63,63012,4
62788,190630701001125,63,63013,4
62915,190630701001252,63,63010,4
63076,190630702001000,63,63007,4
63080,190630702001004,63,63002,4
63104,190630702001028,63,63008,4
63155,190630702001079,63,63009,4
63186,190630702001110,63,63011,4
63337,190630702002026,63,63001,4
63963,190650801001000,65,65007,1
64169,190650802001010,65,65014,1
64300,190650802002000,65,65017,1
64346,190650802002046,65,65024,1
64351,190650802002051,65,65008,1
64418,190650802002118,65,65025,1
64461,190650802003000,65,65015,1
64531,190650802003070,65,65016,1
64703,190650803001000,65,65018,1
64800,190650803001097,65,65021,1
64882,190650803002000,65,65019,1
64991,190650803002109,65,65020,1
65110,190650803002228,65,65022,1
65148,190650804001003,65,65023,1
65601,190650806001000,65,65004,1
65606,190650806001005,65,65003,1
65621,190650806001020,65,65002,1
65714,190650806001113,65,65006,1
65747,190650806001146,65,65005,1
66131,190650807001086,65,65009,1
66198,190650807002000,65,65001,1
66304,190650807002106,65,65010,1
66352,190650807003012,65,65013,1
66354,190650807003014,65,65011,1
66501,190650807003161,65,65012,1
66656,190674801001000,67,67005,4
66658,190674801001002,67,67004,4
66751,190674801001095,67,67007,4
66797,190674801001141,67,67009,4
66823,190674801001167,67,67008,4
66825,190674801002000,67,67006,4
66869,190674801002044,67,67014,4
66934,190674801002109,67,67012,4
67142,190674802001000,67,67003,4
67148,190674802001006,67,67001,4
67228,190674802001086,67,67010,4
67383,190674802002085,67,67002,4
67596,190674803001026,67,67013,4
67683,190674803001113,67,67015,4
67717,190674803001147,67,67016,4
67790,190674803002050,67,67011,4
68731,190693601001000,69,69005,4
68737,190693601001006,69,69003,4
68851,190693601001120,69,69007,4
68925,190693601002000,69,69006,4
69032,190693601002107,69,69018,4
69041,190693601002116,69,69017,4
69178,190693601003067,69,69021,4
69233,190693601003122,69,69019,4
69308,190693601003197,69,69020,4
69413,190693601004004,69,69004,4
69533,190693602001001,69,69008,4
69704,190693602002076,69,69009,4
69968,190693603001000,69,69002,4
70094,190693603001126,69,69010,4
70107,190693603001139,69,69011,4
70166,190693603001198,69,69015,4
70197,190693603002001,69,69016,4
70218,190693603002022,69,69013,4
70301,190693603002105,69,69023,4
70331,190693603002135,69,69022,4
70507,190693603003004,69,69001,4
70580,190693603003077,69,69012,4
70700,190693603003197,69,69014,4
70743,190719701001000,71,71005,5
70753,190719701001010,71,71004,5
70873,190719701001130,71,71006,5
70895,190719701001152,71,71010,5
70954,190719701001211,71,71007,5
71093,190719701002028,71,71009,5
71120,190719701002055,71,71008,5
71240,190719701002175,71,71016,5
71373,190719701002308,71,71015,5
71506,190719702001000,71,71002,5
71507,190719702001001,71,71011,5
71591,190719702002004,71,71003,5
71819,190719703001001,71,71013,5
71834,190719703001016,71,71014,5
71970,190719703002018,71,71012,5
72203,190719703003004,71,71001,5
72579,190730801001000,73,73005,4
72607,190730801001028,73,73014,4
72618,190730801001039,73,73013,4
72631,190730801001052,73,73015,4
72750,190730801002000,73,73004,4
73012,190730802001000,73,73003,4
73050,190730802001038,73,73006,4
73082,190730802001070,73,73012,4
73348,190730803001001,73,73007,4
73358,190730803001011,73,73008,4
73412,190730803001065,73,73011,4
73520,190730803001173,73,73016,4
73653,190730805001000,73,73001,4
73757,190730805001104,73,73009,4
73768,190730805001115,73,73010,4
73900,190730805001247,73,73017,4
73978,190730805002001,73,73002,4
74118,190759601001000,75,75006,3
74120,190759601001002,75,75005,3
74165,190759601002000,75,75004,3
74239,190759601003006,75,75013,3
74254,190759601003021,75,75012,3
74410,190759602001000,75,75002,3
74413,190759602001003,75,75001,3
74491,190759602001081,75,75008,3
74500,190759602001090,75,75009,3
74536,190759602001126,75,75011,3
74628,190759602003000,75,75003,3
74701,190759602003073,75,75007,3
75006,190759604001026,75,75010,3
75069,190759604001089,75,75017,3
75090,190759604001110,75,75014,3
75203,190759604002006,75,75016,3
75250,190779501001000,77,77005,5
75260,190779501001010,77,77004,5
75418,190779501001168,77,77008,5
75516,190779501001266,77,77006,5
75532,190779501001282,77,77013,5
75535,190779501001285,77,77015,5
75587,190779501002006,77,77007,5
75872,190779502001001,77,77003,5
75879,190779502001008,77,77001,5
75890,190779502001019,77,77002,5
76014,190779502001143,77,77009,5
76051,190779502001180,77,77010,5
76175,190779502002000,77,77012,5
76183,190779502002008,77,77011,5
76277,190779502002102,77,77022,5
76292,190779502002117,77,77020,5
76370,190779502002195,77,77023,5
76408,190779502002233,77,77021,5
76540,190779503001047,77,77019,5
76574,190779503001081,77,77016,5
76603,190779503001110,77,77017,5
76662,190779503002004,77,77014,5
77017,190779503005009,77,77018,5
77136,190799601001000,79,79005,4
77144,190799601001008,79,79003,4
77159,190799601001023,79,79002,4
77207,190799601001071,79,79004,4
77317,190799601001181,79,79007,4
77326,190799601001190,79,79010,4
77328,190799601001192,79,79008,4
77375,190799601001239,79,79009,4
77429,190799601001293,79,79011,4
77432,190799601001296,79,79013,4
77433,190799601001297,79,79012,4
77451,190799601002011,79,79001,4
77575,190799602001000,79,79015,4
77593,190799602001018,79,79014,4
77634,190799602001059,79,79019,4
77640,190799602002000,79,79016,4
77651,190799602002011,79,79018,4
77690,190799602002050,79,79017,4
77724,190799602002084,79,79020,4
77816,190799602003000,79,79006,4
78559,190799605001053,79,79022,4
78628,190799605002002,79,79023,4
78689,190799605003011,79,79021,4
78748,190812701001000,81,81006,4
78750,190812701001002,81,81007,4
78838,190812701002042,81,81014,4
78848,190812701003000,81,81004,4
78912,190812701003064,81,81008,4
79093,190812702001080,81,81015,4
79160,190812702002037,81,81013,4
79215,190812702002092,81,81012,4
79231,190812702002108,81,81016,4
79268,190812702002145,81,81017,4
79298,190812702002175,81,81018,4
79365,190812702003000,81,81005,4
79376,190812702003011,81,81003,4
79514,190812702003149,81,81009,4
79521,190812703001000,81,81002,4
79783,190812704001010,81,81011,4
79785,190812704001012,81,81019,4
79983,190812704002095,81,81020,4
80057,190812704003000,81,81001,4
80114,190812704003057,81,81010,4
80181,190834801001000,83,83004,4
80211,190834801001030,83,83003,4
80262,190834801001081,83,83005,4
80264,190834801001083,83,83006,4
80267,190834801001086,83,83002,4
80408,190834801002121,83,83012,4
80604,190834802001078,83,83007,4
80844,190834804001000,83,83001,4
80884,190834804001040,83,83008,4
80993,190834804001149,83,83009,4
81063,190834804001219,83,83010,4
81229,190834804003031,83,83019,4
81303,190834805001000,83,83014,4
81411,190834805001108,83,83015,4
81453,190834805001150,83,83017,4
81474,190834805002006,83,83018,4
81602,190834805003006,83,83011,4
81657,190834805004004,83,83016,4
81820,190834806001040,83,83013,4
82015,190852901001000,85,85003,5
82018,190852901001003,85,85002,5
82025,190852901001010,85,85001,5
82216,190852901001201,85,85011,5
82236,190852901002000,85,85005,5
82245,190852901002009,85,85004,5
82281,190852901002045,85,85006,5
82358,190852901002122,85,85008,5
82359,190852901002123,85,85007,5
82403,190852901002167,85,85009,5
82436,190852901002200,85,85010,5
82631,190852902001072,85,85012,5
82684,190852902001125,85,85015,5
82686,190852902001127,85,85013,5
82834,190852902002113,85,85016,5
82976,190852903001000,85,85017,5
83179,190852903001203,85,85014,5
83217,190852903001241,85,85022,5
83242,190852903001266,85,85021,5
83244,190852903001268,85,85020,5
83759,190852905002000,85,85018,5
83783,190852905002024,85,85019,5
83999,190879701001000,87,87004,2
84115,190879701002008,87,87003,2
84229,190879701002122,87,87006,2
84272,190879701002165,87,87005,2
84338,190879701002231,87,87009,2
84359,190879701002252,87,87001,2
84391,190879701003015,87,87002,2
84567,190879701003191,87,87007,2
84605,190879702001007,87,87008,2
84713,190879702001115,87,87014,2
84746,190879702001148,87,87015,2
84941,190879702003018,87,87013,2
85110,190879702003187,87,87012,2
85144,190879703001015,87,87010,2
85870,190879705001080,87,87011,2
86254,190899601001000,89,89005,4
86538,190899602001000,89,89004,4
86561,190899602001023,89,89003,4
86642,190899602001104,89,89006,4
86776,190899602002069,89,89013,4
86858,190899602003023,89,89014,4
86960,190899602003125,89,89015,4
86983,190899603001000,89,89002,4
86985,190899603001002,89,89001,4
87032,190899603001049,89,89007,4
87034,190899603001051,89,89008,4
87077,190899603001094,89,89009,4
87116,190899603001133,89,89010,4
87238,190899603002061,89,89012,4
87243,190899603002066,89,89011,4
87581,190919701001000,91,91004,4
87588,190919701001007,91,91005,4
87596,190919701001015,91,91003,4
87610,190919701001029,91,91002,4
87789,190919701001208,91,91006,4
87801,190919701001220,91,91008,4
87817,190919701001236,91,91009,4
87830,190919701002000,91,91017,4
87840,190919701002010,91,91015,4
87857,190919701002027,91,91016,4
87870,190919701002040,91,91013,4
88047,190919701003043,91,91007,4
88183,190919702001005,91,91011,4
88189,190919702001011,91,91012,4
88367,190919702002008,91,91010,4
88524,190919702003008,91,91001,4
88740,190919703001002,91,91014,4
89143,190930901001000,93,93004,5
89153,190930901001010,93,93002,5
89163,190930901001020,93,93001,5
89405,190930901002001,93,93003,5
89424,190930901002020,93,93006,5
89501,190930901002097,93,93007,5
89582,190930902001000,93,93005,5
89742,190930902001160,93,93008,5
89898,190930902001316,93,93013,5
89912,190930902001330,93,93010,5
89914,190930902001332,93,93009,5
90054,190930902002092,93,93011,5
90071,190930902002109,93,93012,5
90599,190959601001000,95,95005,3
90678,190959601001079,95,95006,3
90725,190959601002002,95,95003,3
90819,190959601002096,95,95007,3
90981,190959601003154,95,95017,3
90987,190959601003160,95,95016,3
91047,190959602001001,95,95002,3
91054,190959602001008,95,95001,3
91177,190959602001131,95,95009,3
91187,190959602002002,95,95008,3
91226,190959602002041,95,95010,3
91324,190959602003002,95,95004,3
91590,190959603001003,95,95012,3
91677,190959603002000,95,95019,3
91700,190959603002023,95,95020,3
91728,190959603002051,95,95011,3
91797,190959603003021,95,95013,3
91811,190959603003035,95,95014,3
91907,190959603003131,95,95021,3
92161,190959604002000,95,95018,3
92215,190959604002054,95,95015,3
92502,190979501001000,97,97008,1
92504,190979501001002,97,97009,1
92517,190979501001015,97,97010,1
92544,190979501001042,97,97012,1
92641,190979501002071,97,97011,1
92707,190979501002137,97,97025,1
92718,190979501002148,97,97023,1
92866,190979501004032,97,97024,1
92898,190979502001000,97,97002,1
92915,190979502001017,97,97001,1
92921,190979502001023,97,97003,1
93000,190979502002014,97,97007,1
93030,190979502002044,97,97004,1
93031,190979502002045,97,97006,1
93113,190979502002127,97,97013,1
93213,190979502003046,97,97014,1
93216,190979502003049,97,97022,1
93276,190979502003109,97,97020,1
93339,190979503001000,97,97016,1
93379,190979503001040,97,97017,1
93477,190979503002000,97,97015,1
93479,190979503002002,97,97018,1
93562,190979503002085,97,97019,1
93568,190979503002091,97,97021,1
93942,190979504002000,97,97005,1
94429,190990401001000,99,99008,3
94460,190990401001031,99,99017,3
94500,190990401001071,99,99007,3
94511,190990401001082,99,99016,3
94532,190990401002000,99,99004,3
94651,190990401003000,99,99005,3
94665,190990401003014,99,99006,3
94770,190990401003119,99,99018,3
94812,190990401004017,99,99003,3
94996,190990402001002,99,99002,3
95005,190990402001011,99,99001,3
95141,190990402001147,99,99010,3
95216,190990402003000,99,99011,3
95297,190990402003081,99,99012,3
95415,190990402004072,99,99013,3
95567,190990403001094,99,99009,3
95617,190990403002037,99,99015,3
96064,190990407001008,99,99014,3
96357,190990407003071,99,99023,3
96473,190990407004007,99,99024,3
96690,190990408001097,99,99021,3
96730,190990408001137,99,99020,3
96977,190990408003006,99,99022,3
97206,190990409001087,99,99019,3
97597,191010901001000,101,101016,2
97601,191010901001004,101,101004,2
97623,191010901001026,101,101003,2
97656,191010901001059,101,101002,2
97750,191010901001153,101,101005,2
97814,191010901001217,101,101007,2
97829,191010901001232,101,101008,2
97894,191010901002056,101,101006,2
97904,191010901002066,101,101015,2
97984,191010901002146,101,101014,2
98049,191010901003028,101,101009,2
98114,191010901003093,101,101013,2
98168,191010902001025,101,101012,2
98177,191010902001034,101,101010,2
98312,191010902002007,101,101001,2
98534,191010902003096,101,101011,2
99529,191030001001000,103,103008,2
99535,191030001001006,103,103052,2
99539,191030001001010,103,103024,2
99555,191030001001026,103,103053,2
99576,191030001001047,103,103018,2
99594,191030001002005,103,103051,2
99603,191030001003003,103,103034,2
99643,191030002001000,103,103017,2
99703,191030003011000,103,103015,2
99786,191030003013001,103,103009,2
99901,191030004001000,103,103038,2
99921,191030004001020,103,103016,2
99929,191030004002000,103,103037,2
99948,191030004002019,103,103025,2
99957,191030004003004,103,103014,2
99966,191030004003013,103,103012,2
100037,191030004003084,103,103032,2
100039,191030005001001,103,103026,2
100058,191030005002001,103,103039,2
100091,191030005004000,103,103043,2
100109,191030006001000,103,103033,2
100112,191030006001003,103,103040,2
100114,191030006001005,103,103031,2
100158,191030011001021,103,103035,2
100176,191030011002009,103,103050,2
100202,191030012001000,103,103054,2
100240,191030013001000,103,103055,2
100244,191030013001004,103,103047,2
100272,191030014001000,103,103046,2
100300,191030014003000,103,103036,2
100366,191030015001022,103,103045,2
100393,191030015002003,103,103048,2
100415,191030016001000,103,103041,2
100421,191030016001006,103,103049,2
100467,191030017001000,103,103042,2
100483,191030017001016,103,103044,2
100613,191030018012023,103,103023,2
100766,191030101001000,103,103006,2
100798,191030101001032,103,103004,2
100825,191030101001059,103,103007,2
100906,191030101001140,103,103019,2
100908,191030101001142,103,103005,2
101101,191030102001000,103,103002,2
101136,191030102001035,103,103003,2
101211,191030102003001,103,103001,2
101272,191030103011000,103,103011,2
101311,191030103011039,103,103010,2
101838,191030104001007,103,103028,2
101894,191030104001063,103,103029,2
101919,191030104002003,103,103013,2
101928,191030104002012,103,103027,2
102210,191030104004077,103,103030,2
102318,191030104005076,103,103021,2
102523,191030105002064,103,103020,2
102578,191030105003039,103,103022,2
102711,191050701001000,105,105008,1
102713,191050701001002,105,105009,1
102737,191050701001026,105,105002,1
102741,191050701001030,105,105001,1
102755,191050701001044,105,105010,1
102878,191050701001167,105,105012,1
102883,191050701001172,105,105013,1
102909,191050701001198,105,105011,1
102928,191050701002000,105,105003,1
103088,191050701002160,105,105007,1
103135,191050701003000,105,105004,1
103216,191050701003081,105,105006,1
103620,191050704001000,105,105014,1
103713,191050704001093,105,105021,1
103751,191050704001131,105,105020,1
103804,191050704002034,105,105023,1
103835,191050704002065,105,105025,1
103861,191050704002091,105,105024,1
103993,191050704003035,105,105022,1
104155,191050705001004,105,105017,1
104194,191050705001043,105,105018,1
104317,191050705002014,105,105019,1
104458,191050705003008,105,105016,1
104464,191050705003014,105,105015,1
104879,191070801001000,107,107007,3
104885,191070801001006,107,107008,3
104944,191070801002000,107,107006,3
105077,191070801003000,107,107009,3
105125,191070801003048,107,107014,3
105138,191070801003061,107,107017,3
105178,191070801003101,107,107016,3
105225,191070801003148,107,107018,3
105262,191070802001000,107,107003,3
105263,191070802001001,107,107004,3
105271,191070802001009,107,107002,3
105310,191070802001048,107,107005,3
105401,191070802002054,107,107010,3
105455,191070802003000,107,107001,3
105515,191070802003060,107,107011,3
105657,191070803001000,107,107013,3
105660,191070803001003,107,107012,3
105735,191070803001078,107,107015,3
105910,191070804001017,107,107021,3
105960,191070804001067,107,107020,3
106040,191070804002017,107,107019,3
106269,191070804003003,107,107022,3
106342,191099501001000,109,109005,4
106358,191099501001016,109,109007,4
106378,191099501001036,109,109014,4
106393,191099501001051,109,109006,4
106397,191099501001055,109,109013,4
106419,191099501001077,109,109011,4
106461,191099501001119,109,109016,4
106517,191099501001175,109,109017,4
106535,191099501002000,109,109004,4
106541,191099501002006,109,109003,4
106550,191099501002015,109,109002,4
106559,191099501002024,109,109001,4
106688,191099501002153,109,109008,4
106700,191099501002165,109,109009,4
106744,191099501002209,109,109010,4
107007,191099502001000,109,109015,4
107184,191099502002000,109,109023,4
107193,191099502002009,109,109022,4
107298,191099502002114,109,109024,4
107357,191099502002173,109,109025,4
107404,191099502003009,109,109026,4
107448,191099502003053,109,109027,4
107506,191099502003111,109,109033,4
107525,191099502003130,109,109034,4
107611,191099502003216,109,109035,4
107727,191099503001045,109,109019,4
107827,191099503001145,109,109018,4
107849,191099503002021,109,109012,4
108105,191099504001000,109,109021,4
108114,191099504001009,109,109028,4
108570,191099506001016,109,109029,4
108644,191099506001090,109,109032,4
108645,191099506001091,109,109030,4
108788,191099506001234,109,109031,4
108876,191099506002010,109,109020,4
109057,191114901001000,111,111007,2
109058,191114901001001,111,111008,2
109060,191114901001003,111,111014,2
109062,191114901001005,111,111015,2
109216,191114902002000,111,111006,2
109479,191114903001011,111,111005,2
109603,191114903002004,111,111004,2
109694,191114904001007,111,111002,2
109741,191114904001054,111,111009,2
109827,191114904003005,111,111001,2
109844,191114904003022,111,111003,2
109947,191114905001012,111,111012,2
109951,191114905001016,111,111013,2
109995,191114905001060,111,111017,2
110000,191114905001065,111,111016,2
110034,191114905001099,111,111011,2
110051,191114905002009,111,111010,2
110373,191114906001080,111,111018,2
111163,191130001001000,113,113032,2
111182,191130001001019,113,113030,2
111208,191130001001045,113,113035,2
111242,191130001002027,113,113016,2
111268,191130001003001,113,113020,2
111280,191130001003013,113,113082,2
111300,191130001003033,113,113081,2
111302,191130001003035,113,113022,2
111306,191130001004000,113,113015,2
111311,191130001004005,113,113036,2
111345,191130001004039,113,113038,2
111359,191130001004053,113,113031,2
111417,191130002011000,113,113070,2
111419,191130002011002,113,113014,2
111536,191130002031013,113,113037,2
111539,191130002031016,113,113069,2
111570,191130002032007,113,113068,2
111586,191130002033001,113,113067,2
111617,191130002051000,113,113013,2
111621,191130002051004,113,113011,2
111632,191130002051015,113,113085,2
111710,191130002061001,113,113012,2
111932,191130002073000,113,113029,2
111943,191130002073011,113,113071,2
111993,191130003001022,113,113027,2
112138,191130004003011,113,113033,2
112292,191130005002026,113,113028,2
112303,191130005002037,113,113034,2
112349,191130005003042,113,113083,2
112391,191130006001027,113,113066,2
112438,191130006002024,113,113078,2
112453,191130007001009,113,113065,2
112565,191130008002021,113,113063,2
112617,191130009011000,113,113084,2
112667,191130009013003,113,113062,2
112695,191130009021000,113,113061,2
112718,191130009022005,113,113075,2
112798,191130010011000,113,113026,2
112804,191130010011006,113,113055,2
112860,191130010011062,113,113054,2
112880,191130010012014,113,113052,2
112891,191130010021000,113,113051,2
112895,191130010021004,113,113050,2
112955,191130010032000,113,113053,2
112998,191130010034006,113,113047,2
113001,191130010034009,113,113048,2
113020,191130011011000,113,113058,2
113031,191130011011011,113,113059,2
113063,191130011021000,113,113056,2
113076,191130011021013,113,113057,2
113157,191130012003020,113,113044,2
113203,191130013002000,113,113064,2
113205,191130013002002,113,113076,2
113208,191130013002005,113,113077,2
113273,191130013003056,113,113043,2
113414,191130015002028,113,113079,2
113434,191130016001016,113,113080,2
113543,191130017001012,113,113074,2
113552,191130017001021,113,113073,2
113618,191130017004025,113,113072,2
113881,191130022001074,113,113060,2
113885,191130022001078,113,113045,2
113979,191130023002014,113,113049,2
114151,191130025002017,113,113046,2
114194,191130026001000,113,113042,2
114453,191130028003030,113,113039,2
114468,191130029001000,113,113041,2
114630,191130030012014,113,113025,2
114832,191130030021023,113,113040,2
114842,191130030021033,113,113023,2
115038,191130101001000,113,113004,2
115044,191130101001006,113,113003,2
115118,191130101001080,113,113007,2
115199,191130101002003,113,113002,2
115350,191130102001000,113,113001,2
115439,191130102001089,113,113009,2
115622,191130103001000,113,113008,2
115711,191130103002000,113,113005,2
115720,191130103002009,113,113006,2
116020,191130104001000,113,113017,2
116062,191130104001042,113,113019,2
116085,191130104001065,113,113018,2
116533,191130106001043,113,113010,2
117062,191130107003054,113,113024,2
117118,191130108001000,113,113021,2
117404,191154501001000,115,115005,2
117412,191154501001008,115,115006,2
117421,191154501001017,115,115004,2
117505,191154501001101,115,115007,2
117773,191154501003100,115,115008,2
117837,191154501003164,115,115010,2
117903,191154502001000,115,115002,2
117923,191154502001020,115,115001,2
118018,191154502001115,115,115003,2
118142,191154502002064,115,115013,2
118179,191154502002101,115,115012,2
118255,191154502002177,115,115011,2
118583,191154503001102,115,115009,2
119012,191179501001000,117,117005,3
119019,191179501001007,117,117014,3
119028,191179501001016,117,117013,3
119145,191179501002000,117,117004,3
119166,191179501002021,117,117003,3
119215,191179501002070,117,117006,3
119286,191179501002141,117,117007,3
119298,191179501002153,117,117012,3
119363,191179502001000,117,117008,3
119376,191179502001013,117,117011,3
119392,191179502001029,117,117010,3
119393,191179502001030,117,117009,3
119504,191179502002000,117,117002,3
119506,191179502002002,117,117001,3
120010,191199501001000,119,119008,5
120018,191199501001008,119,119007,5
120110,191199501002000,119,119010,5
120112,191199501002002,119,119023,5
120151,191199501002041,119,119022,5
120186,191199501003000,119,119009,5
120257,191199501003071,119,119024,5
120348,191199502001000,119,119006,5
120352,191199502001004,119,119012,5
120359,191199502001011,119,119011,5
120408,191199502002012,119,119013,5
120456,191199502003013,119,119004,5
120495,191199502003052,119,119021,5
120542,191199502003099,119,119019,5
120591,191199503001004,119,119002,5
120633,191199503001046,119,119005,5
120664,191199503002001,119,119003,5
120710,191199503003000,119,119001,5
120761,191199503003051,119,119015,5
120784,191199503003074,119,119016,5
120832,191199503004000,119,119017,5
120835,191199503004003,119,119018,5
120881,191199503005005,119,119014,5
121026,191199503006006,119,119020,5
121161,191210601001000,121,121002,4
121162,191210601001001,121,121003,4
121166,191210601001005,121,121001,4
121330,191210601002000,121,121005,4
121340,191210601002010,121,121004,4
121554,191210601002224,121,121006,4
121589,191210601003000,121,121007,4
121591,191210601003002,121,121015,4
121701,191210601003112,121,121016,4
121762,191210601004060,121,121008,4
121810,191210601004108,121,121009,4
121822,191210601004120,121,121010,4
121903,191210601004201,121,121014,4
122282,191210602003114,121,121013,4
122393,191210603001026,121,121011,4
122562,191210603001195,121,121012,4
122604,191210603002023,121,121017,4
122894,191210603004013,121,121018,4
122911,191210603004030,121,121019,4
123193,191239501001000,123,123018,3
123244,191239501002000,123,123007,3
123253,191239501002009,123,123008,3
123256,191239501002012,123,123015,3
123260,191239501002016,123,123017,3
123396,191239501002152,123,123014,3
123402,191239501002158,123,123019,3
123453,191239501003000,123,123005,3
123457,191239501003004,123,123006,3
123467,191239501003014,123,123004,3
123540,191239501003087,123,123009,3
123643,191239501003190,123,123013,3
123670,191239502001000,123,123002,3
123683,191239502001013,123,123001,3
123684,191239502001014,123,123010,3
123777,191239502002006,123,123003,3
124065,191239503001021,123,123012,3
124083,191239503001039,123,123021,3
124112,191239503001068,123,123020,3
124134,191239503001090,123,123022,3
124160,191239503001116,123,123023,3
124300,191239503002003,123,123011,3
124647,191239505002003,123,123016,3
124968,191250301001000,125,125003,3
125001,191250301001033,125,125004,3
125089,191250301002000,125,125002,3
125098,191250301002009,125,125001,3
125270,191250301003000,125,125008,3
125277,191250301003007,125,125009,3
125635,191250304011000,125,125007,3
125810,191250304012124,125,125010,3
125902,191250304021053,125,125005,3
126278,191250306001085,125,125011,3
126391,191250306003000,125,125012,3
126523,191250307001006,125,125013,3
126544,191250307001027,125,125014,3
126768,191250307003019,125,125006,3
126868,191279501001000,127,127004,4
126899,191279501001031,127,127003,4
126923,191279501001055,127,127006,4
126965,191279501001097,127,127022,4
126978,191279501002003,127,127002,4
127028,191279501002053,127,127008,4
127078,191279501002103,127,127023,4
127080,191279501003000,127,127005,4
127172,191279501003092,127,127027,4
127175,191279501003095,127,127014,4
127207,191279501004018,127,127007,4
127302,191279502001000,127,127009,4
127304,191279502001002,127,127011,4
127376,191279502002009,127,127001,4
127489,191279502002122,127,127010,4
127637,191279502003000,127,127012,4
127769,191279503001061,127,127013,4
127832,191279503001124,127,127018,4
127852,191279503002005,127,127019,4
127921,191279503003026,127,127020,4
128003,191279503003108,127,127017,4
128143,191279504001002,127,127015,4
128227,191279504002054,127,127028,4
128281,191279504003001,127,127016,4
128482,191279505002010,127,127021,4
128589,191279506003014,127,127025,4
128666,191279507001004,127,127024,4
128839,191279508002023,127,127026,4
129177,191290401001000,129,129004,5
129187,191290401001010,129,129003,5
129280,191290401001103,129,129007,5
129282,191290401001105,129,129005,5
129425,191290401002083,129,129016,5
129488,191290401003040,129,129015,5
129769,191290401004093,129,129008,5
129854,191290401004178,129,129013,5
129862,191290402011000,129,129001,5
129902,191290402011040,129,129011,5
129939,191290402011077,129,129009,5
130100,191290402012023,129,129010,5
130127,191290402012050,129,129012,5
130315,191290402012238,129,129014,5
130327,191290402021000,129,129002,5
131015,191315601001000,131,131009,4
131018,191315601001003,131,131007,4
131020,191315601001005,131,131010,4
131027,191315601001012,131,131003,4
131063,191315601001048,131,131016,4
131092,191315601001077,131,131017,4
131096,191315601001081,131,131018,4
131115,191315601001100,131,131015,4
131179,191315601002019,131,131002,4
131189,191315601002029,131,131004,4
131284,191315601002124,131,131012,4
131299,191315601003002,131,131008,4
131355,191315601004000,131,131005,4
131389,191315601004034,131,131006,4
131518,191315602001032,131,131011,4
131555,191315602001069,131,131014,4
131557,191315602001071,131,131013,4
131882,191315602004002,131,131001,4
132246,191339601001000,133,133004,5
132257,191339601001011,133,133003,5
132284,191339601001038,133,133010,5
132301,191339601001055,133,133009,5
132306,191339601001060,133,133011,5
132380,191339601001134,133,133017,5
132388,191339601001142,133,133012,5
132417,191339601002000,133,133005,5
132475,191339601002058,133,133007,5
132543,191339601002126,133,133008,5
132547,191339601003000,133,133006,5
132652,191339602001010,133,133002,5
132658,191339602001016,133,133001,5
132776,191339602001134,133,133013,5
132863,191339602001221,133,133015,5
132920,191339602001278,133,133016,5
132937,191339602001295,133,133023,5
133151,191339602002024,133,133014,5
133565,191339604001125,133,133019,5
133584,191339604002013,133,133018,5
133592,191339604002021,133,133021,5
133597,191339604002026,133,133020,5
133736,191339604002165,133,133022,5
134061,191350701001000,135,135005,3
134062,191350701001001,135,135004,3
134075,191350701001014,135,135003,3
134135,191350701001074,135,135007,3
134149,191350701001088,135,135006,3
134447,191350702002026,135,135013,3
134448,191350702002027,135,135014,3
134551,191350702002130,135,135015,3
134608,191350703001001,135,135008,3
134625,191350703001018,135,135009,3
134633,191350703001026,135,135001,3
134658,191350703001051,135,135012,3
134670,191350703001063,135,135010,3
134672,191350703001065,135,135011,3
134814,191350703002001,135,135002,3
134991,191379601001000,137,137005,5
135005,191379601001014,137,137004,5
135096,191379601001105,137,137006,5
135111,191379601001120,137,137007,5
135203,191379601001212,137,137015,5
135212,191379601001221,137,137013,5
135272,191379601002004,137,137002,5
135305,191379601002037,137,137003,5
135440,191379601003000,137,137001,5
135502,191379601003062,137,137008,5
135526,191379601003086,137,137009,5
136208,191379603003170,137,137011,5
136250,191379604001022,137,137010,5
136377,191379604001149,137,137012,5
136440,191379604002005,137,137014,5
136768,191390501001000,139,139004,2
136813,191390501001045,139,139011,2
136844,191390501002000,139,139006,2
136845,191390501002001,139,139007,2
136931,191390501002087,139,139008,2
136953,191390501002109,139,139010,2
137021,191390501003053,139,139029,2
137131,191390502001000,139,139003,2
137138,191390502001007,139,139002,2
137278,191390502002000,139,139005,2
137333,191390502002055,139,139012,2
137501,191390502005003,139,139013,2
137519,191390502005021,139,139001,2
137531,191390502005033,139,139014,2
137584,191390502005086,139,139020,2
137926,191390503004081,139,139015,2
137981,191390504001019,139,139016,2
138047,191390504001085,139,139017,2
138055,191390504001093,139,139019,2
138128,191390504001166,139,139027,2
138146,191390504001184,139,139026,2
138212,191390504002042,139,139018,2
138372,191390505001000,139,139024,2
138375,191390505001003,139,139022,2
138390,191390505002001,139,139021,2
138448,191390506001014,139,139025,2
138555,191390507002003,139,139028,2
138740,191390508003020,139,139023,2
139000,191414901001000,141,141005,5
139030,191414901001030,141,141007,5
139097,191414901001097,141,141017,5
139192,191414901001192,141,141018,5
139196,191414901002000,141,141004,5
139207,191414901002011,141,141002,5
139268,191414901002072,141,141008,5
139330,191414901002134,141,141015,5
139414,191414901003003,141,141006,5
139547,191414902001000,141,141009,5
139557,191414902001010,141,141010,5
139558,191414902001011,141,141012,5
139608,191414902001061,141,141013,5
139615,191414902001068,141,141014,5
139741,191414902001194,141,141022,5
139747,191414902001200,141,141021,5
139786,191414902002007,141,141001,5
139937,191414902003001,141,141003,5
140101,191414902005004,141,141016,5
140218,191414903001004,141,141011,5
140488,191414904001024,141,141020,5
140500,191414904001036,141,141019,5
140917,191434601001000,143,143008,5
140918,191434601001001,143,143010,5
140923,191434601001006,143,143009,5
141187,191434601004000,143,143002,5
141199,191434601004012,143,143001,5
141396,191434601004209,143,143011,5
141401,191434602001000,143,143014,5
141417,191434602001016,143,143013,5
141425,191434602001024,143,143012,5
141577,191434602002000,143,143004,5
141589,191434602002012,143,143003,5
141697,191434602002120,143,143005,5
141727,191434602002150,143,143006,5
141748,191434602002171,143,143007,5
142176,191454901001000,145,145004,5
142186,191454901001010,145,145003,5
142266,191454901001090,145,145005,5
142279,191454901001103,145,145006,5
142413,191454901002011,145,145002,5
142533,191454901002131,145,145007,5
142622,191454901003008,145,145001,5
142686,191454901003072,145,145009,5
142810,191454901003196,145,145011,5
142916,191454902001002,145,145010,5
143330,191454904001007,145,145016,5
143601,191454905001083,145,145013,5
143603,191454905001085,145,145015,5
143828,191454906001106,145,145014,5
143858,191454906001136,145,145018,5
143869,191454906001147,145,145017,5
143927,191454906002004,145,145008,5
143937,191454906002014,145,145012,5
144008,191454906002085,145,145020,5
144073,191454906002150,145,145022,5
144091,191454906002168,145,145021,5
144321,191454906003026,145,145019,5
144448,191479601001000,147,147004,4
144455,191479601001007,147,147003,4
144565,191479601001117,147,147006,4
144583,191479601001135,147,147005,4
144671,191479601002000,147,147013,4
144702,191479601002031,147,147012,4
144844,191479601002173,147,147014,4
144893,191479601002222,147,147016,4
144967,191479601002296,147,147018,4
145030,191479601003014,147,147015,4
145098,191479602001000,147,147002,4
145268,191479602002071,147,147007,4
145340,191479602002143,147,147011,4
145413,191479602002216,147,147017,4
145564,191479603001010,147,147008,4
145996,191479604001000,147,147009,4
146103,191479604002006,147,147001,4
146246,191479604002149,147,147010,4
146348,191479604002251,147,147019,4
146421,191499701001000,149,149011,5
146422,191499701001001,149,149013,5
146465,191499701002000,149,149004,5
146697,191499702002043,149,149012,5
146808,191499703001000,149,149001,5
146893,191499703002000,149,149015,5
146976,191499703002083,149,149014,5
147004,191499703003000,149,149003,5
147010,191499703003006,149,149002,5
147273,191499704001000,149,149007,5
147282,191499704001009,149,149009,5
147332,191499704002000,149,149006,5
147339,191499704002007,149,149008,5
147343,191499704002011,149,149010,5
147351,191499704002019,149,149005,5
147639,191499705001000,149,149022,5
147642,191499705001003,149,149024,5
147657,191499705001018,149,149023,5
147697,191499705002000,149,149021,5
147786,191499705002089,149,149025,5
148003,191499705003048,149,149019,5
148009,191499705003054,149,149020,5
148164,191499706001016,149,149016,5
148211,191499706001063,149,149017,5
148245,191499706001097,149,149028,5
148263,191499706001115,149,149027,5
148331,191499706002020,149,149018,5
148359,191499706002048,149,149026,5
148658,191517801001000,151,151002,4
148659,191517801001001,151,151001,4
148687,191517801001029,151,151010,4
148874,191517801003000,151,151004,4
148876,191517801003002,151,151003,4
149079,191517801003205,151,151009,4
149138,191517802001000,151,151005,4
149139,191517802001001,151,151007,4
149272,191517802001134,151,151008,4
149452,191517802001314,151,151012,4
149459,191517802001321,151,151013,4
149647,191517802003063,151,151006,4
149827,191517802003243,151,151015,4
149858,191517803001006,151,151011,4
149986,191517803001134,151,151018,4
150004,191517803001152,151,151019,4
150169,191517803002008,151,151014,4
150284,191517803002123,151,151016,4
150356,191517803002195,151,151017,4
150598,191530001011000,153,153081,3
150632,191530001021000,153,153109,3
150655,191530001022000,153,153110,3
150680,191530001031002,153,153108,3
150725,191530002011000,153,153082,3
150744,191530002012000,153,153107,3
150761,191530002021000,153,153115,3
150765,191530002021004,153,153116,3
150786,191530002022000,153,153113,3
150828,191530003001000,153,153083,3
150871,191530003002012,153,153106,3
150919,191530004001000,153,153084,3
150925,191530004001006,153,153085,3
150944,191530004002008,153,153103,3
150952,191530004002016,153,153102,3
150959,191530004003003,153,153086,3
151008,191530005001000,153,153104,3
151088,191530005005000,153,153101,3
151127,191530006002002,153,153087,3
151194,191530007011000,153,153120,3
151196,191530007011002,153,153100,3
151198,191530007011004,153,153088,3
151232,191530007021000,153,153030,3
151236,191530007021004,153,153090,3
151253,191530007021021,153,153178,3
151268,191530007022004,153,153089,3
151288,191530007031000,153,153099,3
151298,191530007031010,153,153098,3
151362,191530007041020,153,153091,3
151414,191530008012000,153,153093,3
151422,191530008012008,153,153094,3
151436,191530008013000,153,153092,3
151506,191530008021000,153,153096,3
151511,191530008022001,153,153097,3
151578,191530008032000,153,153095,3
151627,191530009011000,153,153131,3
151668,191530009013000,153,153130,3
151695,191530009021000,153,153129,3
151710,191530009022000,153,153126,3
151778,191530010001007,153,153127,3
151796,191530010003000,153,153128,3
151826,191530011001000,153,153124,3
151838,191530011001012,153,153122,3
151842,191530011002000,153,153136,3
151864,191530011004000,153,153125,3
151908,191530012003005,153,153123,3
151933,191530015001003,153,153105,3
152028,191530017002005,153,153117,3
152088,191530018002003,153,153114,3
152126,191530019001000,153,153111,3
152142,191530019002007,153,153112,3
152199,191530021001000,153,153139,3
152207,191530021001008,153,153138,3
152227,191530021002012,153,153141,3
152299,191530026001000,153,153137,3
152316,191530026001017,153,153135,3
152349,191530027001001,153,153146,3
152381,191530027001033,153,153148,3
152400,191530027002000,153,153144,3
152430,191530027003000,153,153145,3
152455,191530027004007,153,153147,3
152461,191530028001003,153,153134,3
152556,191530029003000,153,153149,3
152581,191530030011000,153,153133,3
152623,191530030012000,153,153132,3
152650,191530030021002,153,153150,3
152679,191530030022006,153,153151,3
152732,191530031001000,153,153153,3
152750,191530032001007,153,153154,3
152784,191530039011000,153,153159,3
152835,191530039012000,153,153181,3
152855,191530039021006,153,153182,3
152856,191530039021007,153,153179,3
152865,191530039022000,153,153176,3
152890,191530040011000,153,153155,3
152935,191530040012028,153,153152,3
152970,191530040041000,153,153177,3
152986,191530040041016,153,153166,3
153024,191530041001000,153,153156,3
153042,191530041001018,153,153157,3
153063,191530041002000,153,153165,3
153096,191530042001000,153,153158,3
153185,191530043001000,153,153162,3
153188,191530043001003,153,153161,3
153200,191530043003000,153,153164,3
153211,191530043004000,153,153163,3
153265,191530044001013,153,153160,3
153319,191530045011000,153,153170,3
153331,191530045012000,153,153169,3
153374,191530045021000,153,153167,3
153387,191530045022000,153,153168,3
153425,191530046022000,153,153171,3
153441,191530046022016,153,153172,3
153515,191530046031012,153,153173,3
153527,191530046032010,153,153174,3
153566,191530046034014,153,153175,3
153723,191530048001004,153,153118,3
153776,191530049001000,153,153119,3
153875,191530050001020,153,153121,3
153941,191530051001001,153,153143,3
154010,191530051001070,153,153142,3
154456,191530053001000,153,153140,3
154628,191530101011000,153,153003,3
154634,191530101011006,153,153002,3
154692,191530101011064,153,153022,3
154700,191530101011072,153,153010,3
154705,191530101012000,153,153004,3
154754,191530101012049,153,153005,3
154882,191530101013044,153,153006,3
154905,191530101013067,153,153008,3
154965,191530101013127,153,153011,3
155012,191530101021033,153,153007,3
155031,191530101021052,153,153018,3
155075,191530101021096,153,153042,3
155077,191530101021098,153,153041,3
155096,191530101021117,153,153037,3
155239,191530102031011,153,153020,3
155246,191530102031018,153,153021,3
155249,191530102031021,153,153009,3
155448,191530102033025,153,153014,3
155533,191530102033110,153,153015,3
155538,191530102033115,153,153019,3
155608,191530102051015,153,153013,3
155609,191530102051016,153,153016,3
155624,191530102051031,153,153012,3
155923,191530102111002,153,153017,3
156046,191530104041000,153,153058,3
156077,191530104042004,153,153059,3
156096,191530104051000,153,153057,3
156151,191530104053005,153,153056,3
156163,191530104053017,153,153055,3
156203,191530104054017,153,153051,3
156212,191530104054026,153,153052,3
156225,191530104061000,153,153060,3
156249,191530104061024,153,153063,3
156265,191530104062000,153,153061,3
156267,191530104062002,153,153062,3
156398,191530104081000,153,153053,3
156494,191530104091002,153,153054,3
156572,191530105001000,153,153032,3
156576,191530105001004,153,153031,3
156662,191530105002000,153,153033,3
156785,191530106001000,153,153034,3
156897,191530106002019,153,153036,3
156900,191530106002022,153,153035,3
156906,191530106002028,153,153046,3
157096,191530107021000,153,153044,3
157178,191530107022000,153,153043,3
157658,191530108021039,153,153180,3
157696,191530108022000,153,153049,3
157699,191530108022003,153,153050,3
157928,191530108041000,153,153045,3
158095,191530110011000,153,153066,3
158102,191530110011007,153,153076,3
158116,191530110011021,153,153065,3
158121,191530110012000,153,153064,3
158171,191530110211000,153,153067,3
158175,191530110211004,153,153075,3
158247,191530110251000,153,153071,3
158266,191530110251019,153,153072,3
158297,191530110261000,153,153073,3
158307,191530110262000,153,153079,3
158344,191530110263008,153,153078,3
158390,191530110271000,153,153077,3
158392,191530110271002,153,153080,3
158742,191530111112000,153,153069,3
158759,191530111113003,153,153068,3
158857,191530111131000,153,153070,3
158861,191530111131004,153,153074,3
159281,191530113001000,153,153023,3
159296,191530113001015,153,153025,3
159382,191530113003000,153,153027,3
159933,191530115001002,153,153001,3
160184,191530115002088,153,153024,3
160489,191550212001000,155,155037,5
160601,191550214001000,155,155002,5
160602,191550214001001,155,155001,5
160706,191550214001105,155,155018,5
160729,191550214001128,155,155017,5
160923,191550214003071,155,155019,5
160959,191550215011000,155,155004,5
160962,191550215011003,155,155003,5
161032,191550215011073,155,155005,5
161158,191550215012000,155,155006,5
161276,191550215012118,155,155016,5
161288,191550215021000,155,155008,5
161296,191550215021008,155,155007,5
161325,191550215021037,155,155009,5
161529,191550215022063,155,155013,5
161535,191550215023000,155,155010,5
161539,191550215023004,155,155011,5
161700,191550215023165,155,155012,5
161708,191550216021000,155,155023,5
161718,191550216021010,155,155021,5
161737,191550216021029,155,155020,5
161769,191550216021061,155,155033,5
161778,191550216021070,155,155035,5
161795,191550216021087,155,155032,5
161816,191550216021108,155,155031,5
161856,191550216022008,155,155034,5
161897,191550216031000,155,155014,5
161898,191550216031001,155,155015,5
162131,191550216032099,155,155022,5
162212,191550216032180,155,155024,5
162303,191550217011087,155,155026,5
162459,191550217012108,155,155025,5
162487,191550217012136,155,155027,5
162573,191550217021008,155,155030,5
162742,191550217022077,155,155029,5
162755,191550217022090,155,155028,5
162926,191550301001000,155,155044,5
162934,191550301002000,155,155042,5
162947,191550301002013,155,155043,5
163016,191550302004000,155,155040,5
163118,191550303003001,155,155039,5
163132,191550303004003,155,155038,5
163227,191550304021000,155,155053,5
163343,191550305021000,155,155052,5
163408,191550306011000,155,155041,5
163480,191550306021001,155,155051,5
163641,191550307003000,155,155049,5
163693,191550307004012,155,155050,5
163737,191550308001032,155,155054,5
163907,191550310001000,155,155047,5
163959,191550311001000,155,155045,5
164010,191550312001000,155,155046,5
164013,191550312001003,155,155048,5
164233,191550313002034,155,155056,5
164337,191550314001000,155,155055,5
164548,191550316022009,155,155036,5
165081,191573701001000,157,157003,3
165082,191573701001001,157,157007,3
165156,191573701001075,157,157008,3
165157,191573701002000,157,157004,3
165298,191573701002141,157,157005,3
165447,191573701003111,157,157006,3
165497,191573702001000,157,157002,3
165509,191573702001012,157,157001,3
165622,191573702001125,157,157009,3
165742,191573702001245,157,157011,3
165806,191573702002011,157,157010,3
165890,191573702002095,157,157017,3
165892,191573702002097,157,157018,3
166122,191573702003088,157,157015,3
166417,191573705001009,157,157013,3
166473,191573705001065,157,157014,3
166687,191573705002075,157,157012,3
166829,191573705002217,157,157016,3
166970,191599501001000,159,159006,5
166977,191599501001007,159,159004,5
167124,191599501001154,159,159007,5
167132,191599501001162,159,159008,5
167152,191599501001182,159,159009,5
167291,191599501002001,159,159002,5
167292,191599501002002,159,159003,5
167307,191599501002017,159,159001,5
167419,191599501002129,159,159010,5
167441,191599501002151,159,159011,5
167457,191599501002167,159,159012,5
167593,191599501002303,159,159014,5
167595,191599501002305,159,159015,5
167609,191599501002319,159,159024,5
167648,191599501002358,159,159013,5
167703,191599501002413,159,159016,5
167804,191599502001002,159,159017,5
167917,191599502002000,159,159018,5
168099,191599502003044,159,159019,5
168118,191599502003063,159,159021,5
168135,191599502003080,159,159022,5
168169,191599502003114,159,159023,5
168317,191599502003262,159,159020,5
168512,191610801001000,161,161004,5
168520,191610801001008,161,161003,5
168597,191610801001085,161,161005,5
168708,191610801001196,161,161007,5
168748,191610801002000,161,161009,5
168804,191610801003000,161,161002,5
168817,191610801003013,161,161001,5
168960,191610801003156,161,161010,5
169106,191610802001000,161,161013,5
169107,191610802001001,161,161012,5
169118,191610802001012,161,161011,5
169185,191610802001079,161,161018,5
169208,191610802001102,161,161020,5
169276,191610802001170,161,161016,5
169494,191610802004002,161,161019,5
169558,191610803001000,161,161014,5
169694,191610803001136,161,161017,5
169705,191610803001147,161,161015,5
169972,191610804001001,161,161006,5
170008,191610804001037,161,161008,5
170184,191630101011000,163,163007,1
170229,191630101011045,163,163014,1
170253,191630101012000,163,163009,1
170341,191630101012088,163,163010,1
170368,191630101013000,163,163008,1
170480,191630101014043,163,163035,1
170489,191630101014052,163,163011,1
170501,191630101014064,163,163059,1
170711,191630101024002,163,163012,1
170816,191630102011000,163,163016,1
170890,191630102012016,163,163015,1
170898,191630102012024,163,163017,1
171102,191630102021005,163,163005,1
171124,191630102021027,163,163002,1
171288,191630102023056,163,163064,1
171370,191630102023138,163,163043,1
171418,191630102024007,163,163006,1
171449,191630102024038,163,163004,1
171531,191630103001000,163,163001,1
171563,191630103001032,163,163003,1
171626,191630103001095,163,163018,1
171674,191630103001143,163,163021,1
171698,191630103001167,163,163019,1
171942,191630104011000,163,163020,1
171970,191630104011028,163,163023,1
172062,191630104013000,163,163022,1
172096,191630104013034,163,163024,1
172413,191630106001000,163,163047,1
172452,191630106001039,163,163046,1
172547,191630107001000,163,163053,1
172632,191630107002055,163,163045,1
172683,191630108002002,163,163044,1
172911,191630110001002,163,163039,1
173009,191630110002045,163,163038,1
173062,191630111001000,163,163050,1
173074,191630111001012,163,163049,1
173101,191630111001039,163,163051,1
173297,191630113001000,163,163054,1
173439,191630114001000,163,163052,1
173544,191630115001000,163,163056,1
173548,191630115001004,163,163055,1
173695,191630116002000,163,163062,1
173910,191630117003001,163,163061,1
174007,191630118001000,163,163060,1
174256,191630120001000,163,163066,1
174259,191630120001003,163,163040,1
174283,191630120001027,163,163048,1
174383,191630121002011,163,163037,1
174406,191630121003004,163,163041,1
174484,191630122002000,163,163036,1
174975,191630126011018,163,163065,1
174999,191630126012007,163,163042,1
175397,191630128012018,163,163067,1
175427,191630128021000,163,163063,1
175755,191630129021000,163,163058,1
175880,191630129022033,163,163057,1
176186,191630132001000,163,163025,1
176297,191630133001000,163,163026,1
176426,191630133003069,163,163031,1
176560,191630135001000,163,163027,1
176578,191630135001018,163,163028,1
176639,191630136001000,163,163034,1
176642,191630136001003,163,163029,1
176755,191630137022009,163,163030,1
176792,191630137023000,163,163013,1
176948,191630137032000,163,163032,1
177025,191630137053000,163,163033,1
177144,191659601001000,165,165016,5
177147,191659601001003,165,165017,5
177261,191659601002000,165,165015,5
177315,191659601002054,165,165014,5
177318,191659601002057,165,165018,5
177402,191659601002141,165,165019,5
177414,191659601002153,165,165012,5
177518,191659601003000,165,165003,5
177528,191659601003010,165,165002,5
177610,191659601003092,165,165007,5
177630,191659601003112,165,165008,5
177704,191659601004000,165,165004,5
177746,191659601004042,165,165005,5
177798,191659601004094,165,165006,5
177887,191659602001015,165,165020,5
177892,191659602001020,165,165022,5
177956,191659602001084,165,165021,5
178045,191659602002015,165,165010,5
178165,191659602003034,165,165011,5
178289,191659602004009,165,165001,5
178376,191659602004096,165,165009,5
178495,191659603001000,165,165013,5
178991,191670701001000,167,167006,5
179033,191670701001042,167,167007,5
179051,191670701001060,167,167008,5
179111,191670701002006,167,167019,5
179116,191670701002011,167,167020,5
179199,191670701003000,167,167005,5
179277,191670701004000,167,167009,5
179325,191670701004048,167,167018,5
179355,191670702001000,167,167004,5
179478,191670702003000,167,167010,5
179514,191670702003036,167,167017,5
179522,191670702003044,167,167016,5
179600,191670702003122,167,167024,5
179603,191670703001001,167,167015,5
179670,191670703001068,167,167026,5
179681,191670703001079,167,167027,5
179736,191670703001134,167,167025,5
179780,191670703002001,167,167003,5
179824,191670703002045,167,167011,5
179835,191670703002056,167,167002,5
180004,191670704001009,167,167001,5
180073,191670704001078,167,167012,5
180130,191670704001135,167,167014,5
180138,191670704001143,167,167013,5
180191,191670704001196,167,167029,5
180192,191670704001197,167,167031,5
180193,191670704001198,167,167028,5
180262,191670704001267,167,167030,5
180540,191670705001015,167,167021,5
180557,191670705001032,167,167023,5
180566,191670705001041,167,167022,5
181156,191690001001000,169,169001,4
181163,191690001001007,169,169009,4
181225,191690001002002,169,169031,4
181228,191690001002005,169,169032,4
181260,191690001002037,169,169030,4
181291,191690001003000,169,169002,4
181314,191690001003023,169,169008,4
181345,191690001003054,169,169027,4
181376,191690001003085,169,169025,4
181506,191690001004080,169,169011,4
181517,191690001004091,169,169013,4
181550,191690001004124,169,169024,4
181666,191690001005024,169,169039,4
181785,191690002002018,169,169026,4
181883,191690004001009,169,169028,4
181890,191690004001016,169,169029,4
181939,191690005002004,169,169042,4
181958,191690006001008,169,169038,4
181972,191690006001022,169,169010,4
181987,191690006001037,169,169033,4
182057,191690007002000,169,169040,4
182094,191690008001020,169,169041,4
182362,191690011001000,169,169034,4
182363,191690011001001,169,169035,4
182378,191690011001016,169,169037,4
182495,191690013011018,169,169036,4
182554,191690013021002,169,169023,4
182692,191690013021140,169,169018,4
182775,191690101001002,169,169022,4
182855,191690101001082,169,169021,4
182875,191690101002005,169,169020,4
182924,191690101002054,169,169019,4
182963,191690101003000,169,169017,4
183217,191690102001000,169,169012,4
183219,191690102001002,169,169016,4
183416,191690102002000,169,169014,4
183575,191690102002159,169,169015,4
184133,191690104002000,169,169007,4
184253,191690105001000,169,169004,4
184365,191690105001112,169,169006,4
184467,191690105002000,169,169005,4
184576,191690106001002,169,169003,4
184931,191712901001000,171,171004,3
184935,191712901001004,171,171003,3
184945,191712901001014,171,171005,3
184961,191712901001030,171,171007,3
185010,191712901001079,171,171012,3
185025,191712901001094,171,171013,3
185100,191712901002027,171,171006,3
185157,191712901003036,171,171011,3
185219,191712901003098,171,171014,3
185229,191712901003108,171,171015,3
185236,191712901003115,171,171016,3
185306,191712902001008,171,171002,3
185398,191712902001100,171,171008,3
185444,191712902002004,171,171001,3
185663,191712903001043,171,171010,3
185716,191712903001096,171,171020,3
185762,191712903001142,171,171021,3
185804,191712903002001,171,171009,3
186007,191712904001002,171,171017,3
186035,191712904001030,171,171019,3
186250,191712905001061,171,171023,3
186273,191712905002015,171,171018,3
186504,191712906001086,171,171022,3
186568,191712906002010,171,171024,3
186726,191712906002168,171,171025,3
186982,191731801001000,173,173004,5
186996,191731801001014,173,173005,5
187047,191731801001065,173,173003,5
187086,191731801001104,173,173008,5
187124,191731801001142,173,173006,5
187160,191731801001178,173,173007,5
187449,191731802001000,173,173017,5
187458,191731802001009,173,173016,5
187473,191731802001024,173,173013,5
187549,191731802001100,173,173018,5
187581,191731802001132,173,173014,5
187589,191731802001140,173,173020,5
187593,191731802001144,173,173021,5
187648,191731802001199,173,173019,5
187771,191731802002009,173,173015,5
188013,191731803001000,173,173002,5
188030,191731803001017,173,173001,5
188091,191731803001078,173,173009,5
188216,191731803001203,173,173010,5
188348,191731803002125,173,173011,5
188432,191731803003013,173,173012,5
188501,191731803003082,173,173022,5
188636,191751901001000,175,175003,5
188649,191751901001013,175,175002,5
188663,191751901001027,175,175004,5
188707,191751901001071,175,175006,5
188710,191751901001074,175,175007,5
188741,191751901001105,175,175005,5
189127,191751902001000,175,175008,5
189278,191751902003037,175,175009,5
189579,191751903001005,175,175001,5
189798,191751903001224,175,175011,5
189854,191751903002011,175,175014,5
189875,191751903002032,175,175013,5
189954,191751903002111,175,175010,5
190155,191751903002312,175,175012,5
190525,191779501001000,177,177007,2
190536,191779501001011,177,177005,2
190541,191779501001016,177,177008,2
190597,191779501001072,177,177009,2
190602,191779501001077,177,177010,2
190606,191779501001081,177,177011,2
190656,191779501002005,177,177006,2
190657,191779501002006,177,177004,2
190746,191779501003023,177,177001,2
190861,191779501004034,177,177018,2
190946,191779501005017,177,177019,2
191012,191779501005083,177,177020,2
191057,191779502001040,177,177012,2
191112,191779502001095,177,177015,2
191119,191779502002000,177,177013,2
191149,191779502002030,177,177014,2
191284,191779502003056,177,177017,2
191353,191779502003125,177,177016,2
191585,191799601001000,179,179005,2
191663,191799601001078,179,179006,2
191670,191799601001085,179,179007,2
191730,191799601001145,179,179015,2
191731,191799601002000,179,179004,2
191741,191799601002010,179,179003,2
191894,191799601002163,179,179008,2
191902,191799601002171,179,179019,2
191921,191799601003006,179,179001,2
191964,191799601003049,179,179002,2
191976,191799601003061,179,179009,2
192123,191799601003208,179,179010,2
192254,191799602001001,179,179020,2
192412,191799602003000,179,179018,2
192419,191799602003007,179,179021,2
192624,191799604002000,179,179017,2
192839,191799605001071,179,179022,2
193013,191799606001023,179,179026,2
193078,191799606002009,179,179025,2
193252,191799607002013,179,179011,2
193275,191799607002036,179,179012,2
193339,191799607002100,179,179013,2
193342,191799607003002,179,179014,2
193474,191799607004047,179,179016,2
193560,191799608002000,179,179024,2
193748,191799609003005,179,179023,2
194378,191810201001000,181,181004,4
194440,191810201001062,181,181005,4
194500,191810202001013,181,181001,4
194737,191810203003003,181,181003,4
194752,191810203003018,181,181002,4
194842,191810204001000,181,181006,4
195034,191810205001000,181,181008,4
195101,191810205001067,181,181010,4
195211,191810205002051,181,181009,4
195327,191810206001000,181,181011,4
195338,191810206001011,181,181012,4
195731,191810211001000,181,181020,4
195757,191810211001026,181,181021,4
195815,191810211001084,181,181018,4
195817,191810211002000,181,181016,4
195867,191810211002050,181,181022,4
195967,191810211003035,181,181019,4
196011,191810211004000,181,181017,4
196124,191810212001000,181,181013,4
196196,191810212001072,181,181014,4
196217,191810212002014,181,181015,4
196328,191810212003000,181,181023,4
196430,191839601001000,183,183003,2
196528,191839601002002,183,183002,2
196675,191839601004033,183,183006,2
196678,191839601004036,183,183005,2
196712,191839601004070,183,183004,2
196751,191839601004109,183,183001,2
196826,191839602001074,183,183007,2
196875,191839602001123,183,183009,2
197018,191839602003054,183,183008,2
197060,191839602003096,183,183017,2
197069,191839602003105,183,183015,2
197182,191839602004000,183,183010,2
197290,191839602005013,183,183016,2
197728,191839605001059,183,183011,2
197920,191839605002060,183,183012,2
198000,191839605002140,183,183013,2
198072,191839605003057,183,183014,2
198113,191850701001000,185,185004,2
198139,191850701001026,185,185003,2
198218,191850701001105,185,185005,2
198248,191850701001135,185,185006,2
198285,191850701001172,185,185007,2
198296,191850701001183,185,185013,2
198337,191850701001224,185,185012,2
198370,191850701002004,185,185008,2
198478,191850701002112,185,185011,2
198620,191850702001002,185,185002,2
198631,191850702001013,185,185001,2
198814,191850702001196,185,185009,2
198905,191850702001287,185,185010,2
198947,191850702001329,185,185017,2
198964,191850702001346,185,185018,2
199199,191850703001080,185,185014,2
199222,191850703001103,185,185015,2
199353,191850703001234,185,185016,2
199586,191870001001000,187,187006,4
199590,191870001001004,187,187028,4
199599,191870001001013,187,187038,4
199621,191870001001035,187,187029,4
199646,191870001002017,187,187037,4
199648,191870001002019,187,187039,4
199782,191870001007021,187,187036,4
199920,191870002002025,187,187030,4
199938,191870002003002,187,187031,4
199984,191870002003048,187,187032,4
199989,191870003001000,187,187007,4
200138,191870004002014,187,187033,4
200235,191870005001060,187,187012,4
200394,191870006001000,187,187034,4
200486,191870006003000,187,187035,4
200781,191870009001093,187,187010,4
200893,191870009003066,187,187011,4
200952,191870101001000,187,187013,4
200957,191870101001005,187,187005,4
200975,191870101001023,187,187014,4
201176,191870101002000,187,187004,4
201344,191870101003000,187,187003,4
201477,191870102001000,187,187002,4
201523,191870102001046,187,187001,4
201659,191870102001182,187,187008,4
201881,191870103001040,187,187020,4
201896,191870103001055,187,187021,4
202032,191870103001191,187,187023,4
202037,191870103002003,187,187009,4
202249,191870103003013,187,187040,4
202312,191870103003076,187,187022,4
202331,191870103004003,187,187024,4
202471,191870104001000,187,187016,4
202477,191870104001006,187,187019,4
202543,191870104001072,187,187025,4
202598,191870104001127,187,187026,4
202665,191870104001194,187,187027,4
202688,191870104001217,187,187017,4
202923,191870104004000,187,187015,4
202936,191870104004013,187,187018,4
203045,191896801001000,189,189006,4
203063,191896801001018,189,189016,4
203075,191896801001030,189,189008,4
203082,191896801001037,189,189013,4
203083,191896801001038,189,189014,4
203169,191896801001124,189,189015,4
203171,191896801002000,189,189004,4
203179,191896801002008,189,189003,4
203209,191896801002038,189,189005,4
203343,191896801003001,189,189007,4
203464,191896802001001,189,189002,4
203470,191896802001007,189,189001,4
203561,191896802001098,189,189010,4
203573,191896802001110,189,189009,4
203630,191896802002008,189,189012,4
203636,191896802002014,189,189011,4
204096,191919501001000,191,191004,4
204142,191919501001046,191,191003,4
204210,191919501001114,191,191006,4
204219,191919501001123,191,191005,4
204283,191919501002004,191,191002,4
204372,191919501002093,191,191007,4
204409,191919501002130,191,191011,4
204411,191919501002132,191,191010,4
204465,191919501003004,191,191001,4
204539,191919501003078,191,191008,4
204617,191919501003156,191,191009,4
204797,191919501004157,191,191017,4
204800,191919502001001,191,191013,4
204980,191919502004013,191,191012,4
205109,191919503001053,191,191015,4
205286,191919504001000,191,191022,4
205348,191919504001062,191,191023,4
205375,191919504001089,191,191020,4
205545,191919504002161,191,191014,4
205817,191919504004064,191,191016,4
205936,191919505001036,191,191021,4
206133,191919505002111,191,191018,4
206293,191919505004031,191,191019,4
206431,191930001001000,193,193045,5
206459,191930001001028,193,193048,5
206469,191930001001038,193,193049,5
206536,191930001002000,193,193043,5
206712,191930001004085,193,193058,5
206764,191930001004137,193,193053,5
206945,191930002006007,193,193046,5
206969,191930003001001,193,193047,5
206990,191930003001022,193,193039,5
207020,191930003003004,193,193031,5
207040,191930003004000,193,193040,5
207203,191930005001005,193,193037,5
207275,191930005004000,193,193033,5
207280,191930005004005,193,193035,5
207498,191930007001036,193,193032,5
207572,191930007003002,193,193034,5
207608,191930008001000,193,193036,5
207611,191930008001003,193,193038,5
207864,191930010001031,193,193044,5
208033,191930012001000,193,193042,5
208289,191930014002022,193,193041,5
208534,191930018001000,193,193054,5
208584,191930018001050,193,193052,5
208616,191930018001082,193,193001,5
208844,191930019001000,193,193056,5
208855,191930019001011,193,193057,5
208991,191930020001005,193,193055,5
209224,191930021013013,193,193050,5
209242,191930021013031,193,193015,5
209314,191930021022017,193,193051,5
209518,191930031001000,193,193004,5
209521,191930031001003,193,193006,5
209637,191930031002000,193,193005,5
209687,191930031002050,193,193010,5
209724,191930031002087,193,193009,5
209784,191930031003020,193,193011,5
209819,191930031003055,193,193023,5
209850,191930031003086,193,193021,5
209852,191930031003088,193,193022,5
209928,191930031004000,193,193007,5
209969,191930031004041,193,193008,5
210048,191930031005000,193,193024,5
210155,191930031005107,193,193026,5
210173,191930031005125,193,193025,5
210391,191930032001000,193,193002,5
210457,191930032001066,193,193013,5
210523,191930032001132,193,193003,5
210530,191930032002002,193,193012,5
210534,191930032002006,193,193014,5
210634,191930032002106,193,193019,5
210970,191930033001002,193,193017,5
211341,191930033005065,193,193016,5
211352,191930035001000,193,193029,5
211386,191930035001034,193,193030,5
211641,191930035002164,193,193018,5
211760,191930035003000,193,193020,5
211882,191930035003122,193,193028,5
211899,191930035003139,193,193027,5
212826,191956901001000,195,195005,4
212834,191956901001008,195,195003,4
212894,191956901001068,195,195007,4
212896,191956901001070,195,195006,4
212928,191956901001102,195,195004,4
213066,191956901003007,195,195002,4
213191,191956902001037,195,195009,4
213235,191956902001081,195,195013,4
213300,191956902002005,195,195010,4
213318,191956902002023,195,195011,4
213377,191956902002082,195,195014,4
213464,191956902002169,195,195012,4
213525,191956902003002,195,195001,4
213802,191956903001089,195,195008,4
213887,191956903002000,195,195016,4
213905,191956903002018,195,195015,4
214200,191976801001000,197,197004,4
214209,191976801001009,197,197003,4
214217,191976801001017,197,197002,4
214226,191976801001026,197,197001,4
214427,191976801001227,197,197008,4
214434,191976801001234,197,197007,4
214452,191976801001252,197,197005,4
214468,191976801001268,197,197006,4
214652,191976802001002,197,197009,4
214691,191976802001041,197,197011,4
214783,191976802001133,197,197010,4
214793,191976802002000,197,197012,4
214868,191976802002075,197,197021,4
214917,191976802002124,197,197019,4
214985,191976802002192,197,197020,4
215141,191976803001068,197,197014,4
215180,191976803001107,197,197013,4
215456,191976804001070,197,197015,4
215544,191976804001158,197,197017,4
215563,191976804001177,197,197016,4
215648,191976804001262,197,197018,4
